<?xml version="1.0" encoding="UTF-8"?>
<robot generator="Robot 6.1.1 (Python 3.11.3 on win32)" generated="20231024 16:03:42.862" rpa="false" schemaversion="4">
<suite id="s1" name="ApiTesting" source="C:\Users\david.nowak\VSCode Projects\RobotFramework_POC\test\ApiTesting.robot">
<test id="s1-t1" name="Quick Get Request Test" line="11">
<kw name="Create Session" library="RequestsLibrary">
<arg>mysession</arg>
<arg>${Base_URL}/users?page=2</arg>
<doc>Create Session: create a HTTP session to a server</doc>
<msg timestamp="20231024 16:03:43.032" level="TRACE">Arguments: [ 'mysession' | 'https://reqres.in/api/users?page=2' ]</msg>
<msg timestamp="20231024 16:03:43.032" level="INFO">Creating Session using : alias=mysession, url=https://reqres.in/api/users?page=2, headers={},                     cookies={}, auth=None, timeout=None, proxies=None, verify=False,                     debug=0 </msg>
<msg timestamp="20231024 16:03:43.032" level="DEBUG">Creating session: mysession</msg>
<msg timestamp="20231024 16:03:43.032" level="TRACE">Return: &lt;requests.sessions.Session object at 0x000001EDA7B14250&gt;</msg>
<status status="PASS" starttime="20231024 16:03:43.031" endtime="20231024 16:03:43.032"/>
</kw>
<kw name="GET On Session" library="RequestsLibrary">
<var>${response}</var>
<arg>mysession</arg>
<arg>/</arg>
<arg>expected_status=200</arg>
<doc>Sends a GET request on a previously created HTTP Session.</doc>
<msg timestamp="20231024 16:03:43.033" level="TRACE">Arguments: [ 'mysession' | '/' | expected_status='200' ]</msg>
<msg timestamp="20231024 16:03:43.035" level="DEBUG">Starting new HTTPS connection (1): reqres.in:443</msg>
<msg timestamp="20231024 16:03:43.120" level="DEBUG">https://reqres.in:443 "GET /api/users?page=2/ HTTP/1.1" 200 None</msg>
<msg timestamp="20231024 16:03:43.121" level="INFO">GET Request : url=https://reqres.in/api/users?page=2/ 
 path_url=/api/users?page=2/ 
 headers={'User-Agent': 'python-requests/2.31.0', 'Accept-Encoding': 'gzip, deflate', 'Accept': '*/*', 'Connection': 'keep-alive'} 
 body=None 
 </msg>
<msg timestamp="20231024 16:03:43.121" level="INFO">GET Response : url=https://reqres.in/api/users?page=2/ 
 status=200, reason=OK 
 headers={'Date': 'Tue, 24 Oct 2023 14:03:43 GMT', 'Content-Type': 'application/json; charset=utf-8', 'Transfer-Encoding': 'chunked', 'Connection': 'keep-alive', 'X-Powered-By': 'Express', 'Access-Control-Allow-Origin': '*', 'Etag': 'W/"406-ut0vzoCuidvyMf8arZpMpJ6ZRDw"', 'Via': '1.1 vegur', 'Cache-Control': 'max-age=14400', 'CF-Cache-Status': 'HIT', 'Age': '368', 'Report-To': '{"endpoints":[{"url":"https:\\/\\/a.nel.cloudflare.com\\/report\\/v3?s=2V%2BVTJe5ZjQ5ttkd%2FWYepmvKZv1vdbkQYPDSLOMXzuNHC9ROK4ZaA90vUs2tJ5yvbIwC3kz5l0vYtSYBhz4lTDH5MWTFlLTxVK%2B3g%2F3skxjB4mzn9KCWQQS5MQ%3D%3D"}],"group":"cf-nel","max_age":604800}', 'NEL': '{"success_fraction":0,"report_to":"cf-nel","max_age":604800}', 'Vary': 'Accept-Encoding', 'Server': 'cloudflare', 'CF-RAY': '81b2c3ca69b1d536-CDG', 'Content-Encoding': 'gzip'} 
 body={"page":2,"per_page":6,"total":12,"total_pages":2,"data":[{"id":7,"email":"michael.lawson@reqres.in","first_name":"Michael","last_name":"Lawson","avatar":"https://reqres.in/img/faces/7-image.jpg"},{"id":8,"email":"lindsay.ferguson@reqres.in","first_name":"Lindsay","last_name":"Ferguson","avatar":"https://reqres.in/img/faces/8-image.jpg"},{"id":9,"email":"tobias.funke@reqres.in","first_name":"Tobias","last_name":"Funke","avatar":"https://reqres.in/img/faces/9-image.jpg"},{"id":10,"email":"byron.fields@reqres.in","first_name":"Byron","last_name":"Fields","avatar":"https://reqres.in/img/faces/10-image.jpg"},{"id":11,"email":"george.edwards@reqres.in","first_name":"George","last_name":"Edwards","avatar":"https://reqres.in/img/faces/11-image.jpg"},{"id":12,"email":"rachel.howell@reqres.in","first_name":"Rachel","last_name":"Howell","avatar":"https://reqres.in/img/faces/12-image.jpg"}],"support":{"url":"https://reqres.in/#support-heading","text":"To keep ReqRes free, contributions towards server costs are appreciated!"}} 
 </msg>
<msg timestamp="20231024 16:03:43.121" level="INFO">C:\Users\david.nowak\AppData\Local\Programs\Python\Python311\Lib\site-packages\urllib3\connectionpool.py:1095: InsecureRequestWarning: Unverified HTTPS request is being made to host 'reqres.in'. Adding certificate verification is strongly advised. See: https://urllib3.readthedocs.io/en/latest/advanced-usage.html#tls-warnings
  warnings.warn(</msg>
<msg timestamp="20231024 16:03:43.122" level="TRACE">Return: &lt;Response [200]&gt;</msg>
<msg timestamp="20231024 16:03:43.122" level="INFO">${response} = &lt;Response [200]&gt;</msg>
<status status="PASS" starttime="20231024 16:03:43.033" endtime="20231024 16:03:43.122"/>
</kw>
<kw name="Log" library="BuiltIn">
<arg>${response.json()}</arg>
<doc>Logs the given message with the given level.</doc>
<msg timestamp="20231024 16:03:43.123" level="TRACE">Arguments: [ {'data': [{'avatar': 'https://reqres.in/img/faces/7-image.jpg',
           'email': 'michael.lawson@reqres.in',
           'first_name': 'Michael',
           'id': 7,
           'last_name': 'Lawson'},
          {'avatar': 'https://reqres.in/img/faces/8-image.jpg',
           'email': 'lindsay.ferguson@reqres.in',
           'first_name': 'Lindsay',
           'id': 8,
           'last_name': 'Ferguson'},
          {'avatar': 'https://reqres.in/img/faces/9-image.jpg',
           'email': 'tobias.funke@reqres.in',
           'first_name': 'Tobias',
           'id': 9,
           'last_name': 'Funke'},
          {'avatar': 'https://reqres.in/img/faces/10-image.jpg',
           'email': 'byron.fields@reqres.in',
           'first_name': 'Byron',
           'id': 10,
           'last_name': 'Fields'},
          {'avatar': 'https://reqres.in/img/faces/11-image.jpg',
           'email': 'george.edwards@reqres.in',
           'first_name': 'George',
           'id': 11,
           'last_name': 'Edwards'},
          {'avatar': 'https://reqres.in/img/faces/12-image.jpg',
           'email': 'rachel.howell@reqres.in',
           'first_name': 'Rachel',
           'id': 12,
           'last_name': 'Howell'}],
 'page': 2,
 'per_page': 6,
 'support': {'text': 'To keep ReqRes free, contributions towards server costs are appreciated!',
             'url': 'https://reqres.in/#support-heading'},
 'total': 12,
 'total_pages': 2} ]</msg>
<msg timestamp="20231024 16:03:43.123" level="INFO">{'page': 2, 'per_page': 6, 'total': 12, 'total_pages': 2, 'data': [{'id': 7, 'email': 'michael.lawson@reqres.in', 'first_name': 'Michael', 'last_name': 'Lawson', 'avatar': 'https://reqres.in/img/faces/7-image.jpg'}, {'id': 8, 'email': 'lindsay.ferguson@reqres.in', 'first_name': 'Lindsay', 'last_name': 'Ferguson', 'avatar': 'https://reqres.in/img/faces/8-image.jpg'}, {'id': 9, 'email': 'tobias.funke@reqres.in', 'first_name': 'Tobias', 'last_name': 'Funke', 'avatar': 'https://reqres.in/img/faces/9-image.jpg'}, {'id': 10, 'email': 'byron.fields@reqres.in', 'first_name': 'Byron', 'last_name': 'Fields', 'avatar': 'https://reqres.in/img/faces/10-image.jpg'}, {'id': 11, 'email': 'george.edwards@reqres.in', 'first_name': 'George', 'last_name': 'Edwards', 'avatar': 'https://reqres.in/img/faces/11-image.jpg'}, {'id': 12, 'email': 'rachel.howell@reqres.in', 'first_name': 'Rachel', 'last_name': 'Howell', 'avatar': 'https://reqres.in/img/faces/12-image.jpg'}], 'support': {'url': 'https://reqres.in/#support-heading', 'text': 'To keep ReqRes free, contributions towards server costs are appreciated!'}}</msg>
<msg timestamp="20231024 16:03:43.123" level="TRACE">Return: None</msg>
<status status="PASS" starttime="20231024 16:03:43.122" endtime="20231024 16:03:43.123"/>
</kw>
<kw name="Status Should Be" library="RequestsLibrary">
<arg>200</arg>
<doc>Fails if response status code is different than the expected.</doc>
<msg timestamp="20231024 16:03:43.124" level="TRACE">Arguments: [ '200' ]</msg>
<msg timestamp="20231024 16:03:43.124" level="TRACE">Return: None</msg>
<status status="PASS" starttime="20231024 16:03:43.124" endtime="20231024 16:03:43.124"/>
</kw>
<kw name="Get Value From Json" library="JSONLibrary">
<var>${per_page_value}</var>
<arg>${response.json()}</arg>
<arg>$.per_page</arg>
<doc>Get Value From JSON using JSONPath</doc>
<msg timestamp="20231024 16:03:43.125" level="TRACE">Arguments: [ {'data': [{'avatar': 'https://reqres.in/img/faces/7-image.jpg',
           'email': 'michael.lawson@reqres.in',
           'first_name': 'Michael',
           'id': 7,
           'last_name': 'Lawson'},
          {'avatar': 'https://reqres.in/img/faces/8-image.jpg',
           'email': 'lindsay.ferguson@reqres.in',
           'first_name': 'Lindsay',
           'id': 8,
           'last_name': 'Ferguson'},
          {'avatar': 'https://reqres.in/img/faces/9-image.jpg',
           'email': 'tobias.funke@reqres.in',
           'first_name': 'Tobias',
           'id': 9,
           'last_name': 'Funke'},
          {'avatar': 'https://reqres.in/img/faces/10-image.jpg',
           'email': 'byron.fields@reqres.in',
           'first_name': 'Byron',
           'id': 10,
           'last_name': 'Fields'},
          {'avatar': 'https://reqres.in/img/faces/11-image.jpg',
           'email': 'george.edwards@reqres.in',
           'first_name': 'George',
           'id': 11,
           'last_name': 'Edwards'},
          {'avatar': 'https://reqres.in/img/faces/12-image.jpg',
           'email': 'rachel.howell@reqres.in',
           'first_name': 'Rachel',
           'id': 12,
           'last_name': 'Howell'}],
 'page': 2,
 'per_page': 6,
 'support': {'text': 'To keep ReqRes free, contributions towards server costs are appreciated!',
             'url': 'https://reqres.in/#support-heading'},
 'total': 12,
 'total_pages': 2} | '$.per_page' ]</msg>
<msg timestamp="20231024 16:03:43.152" level="TRACE">Return: [6]</msg>
<msg timestamp="20231024 16:03:43.153" level="INFO">${per_page_value} = [6]</msg>
<status status="PASS" starttime="20231024 16:03:43.124" endtime="20231024 16:03:43.153"/>
</kw>
<kw name="Should Be Equal As Integers" library="BuiltIn">
<arg>${per_page_value[0]}</arg>
<arg>6</arg>
<doc>Fails if objects are unequal after converting them to integers.</doc>
<msg timestamp="20231024 16:03:43.154" level="TRACE">Arguments: [ 6 | '6' ]</msg>
<msg timestamp="20231024 16:03:43.154" level="INFO">Argument types are:
&lt;class 'int'&gt;
&lt;class 'str'&gt;</msg>
<msg timestamp="20231024 16:03:43.154" level="TRACE">Return: None</msg>
<status status="PASS" starttime="20231024 16:03:43.153" endtime="20231024 16:03:43.154"/>
</kw>
<kw name="Get Value From Json" library="JSONLibrary">
<var>${First_Firstname_value}</var>
<arg>${response.json()}</arg>
<arg>$.data[0].first_name</arg>
<doc>Get Value From JSON using JSONPath</doc>
<msg timestamp="20231024 16:03:43.155" level="TRACE">Arguments: [ {'data': [{'avatar': 'https://reqres.in/img/faces/7-image.jpg',
           'email': 'michael.lawson@reqres.in',
           'first_name': 'Michael',
           'id': 7,
           'last_name': 'Lawson'},
          {'avatar': 'https://reqres.in/img/faces/8-image.jpg',
           'email': 'lindsay.ferguson@reqres.in',
           'first_name': 'Lindsay',
           'id': 8,
           'last_name': 'Ferguson'},
          {'avatar': 'https://reqres.in/img/faces/9-image.jpg',
           'email': 'tobias.funke@reqres.in',
           'first_name': 'Tobias',
           'id': 9,
           'last_name': 'Funke'},
          {'avatar': 'https://reqres.in/img/faces/10-image.jpg',
           'email': 'byron.fields@reqres.in',
           'first_name': 'Byron',
           'id': 10,
           'last_name': 'Fields'},
          {'avatar': 'https://reqres.in/img/faces/11-image.jpg',
           'email': 'george.edwards@reqres.in',
           'first_name': 'George',
           'id': 11,
           'last_name': 'Edwards'},
          {'avatar': 'https://reqres.in/img/faces/12-image.jpg',
           'email': 'rachel.howell@reqres.in',
           'first_name': 'Rachel',
           'id': 12,
           'last_name': 'Howell'}],
 'page': 2,
 'per_page': 6,
 'support': {'text': 'To keep ReqRes free, contributions towards server costs are appreciated!',
             'url': 'https://reqres.in/#support-heading'},
 'total': 12,
 'total_pages': 2} | '$.data[0].first_name' ]</msg>
<msg timestamp="20231024 16:03:43.174" level="TRACE">Return: ['Michael']</msg>
<msg timestamp="20231024 16:03:43.174" level="INFO">${First_Firstname_value} = ['Michael']</msg>
<status status="PASS" starttime="20231024 16:03:43.155" endtime="20231024 16:03:43.175"/>
</kw>
<kw name="Should Be Equal As Strings" library="BuiltIn">
<arg>${First_Firstname_value[0]}</arg>
<arg>Michael</arg>
<doc>Fails if objects are unequal after converting them to strings.</doc>
<msg timestamp="20231024 16:03:43.176" level="TRACE">Arguments: [ 'Michael' | 'Michael' ]</msg>
<msg timestamp="20231024 16:03:43.176" level="DEBUG">Argument types are:
&lt;class 'str'&gt;
&lt;class 'str'&gt;</msg>
<msg timestamp="20231024 16:03:43.176" level="TRACE">Return: None</msg>
<status status="PASS" starttime="20231024 16:03:43.175" endtime="20231024 16:03:43.176"/>
</kw>
<kw name="Get Value From Json" library="JSONLibrary">
<var>${First_Lastname_value}</var>
<arg>${response.json()}</arg>
<arg>$.data[0].last_name</arg>
<doc>Get Value From JSON using JSONPath</doc>
<msg timestamp="20231024 16:03:43.177" level="TRACE">Arguments: [ {'data': [{'avatar': 'https://reqres.in/img/faces/7-image.jpg',
           'email': 'michael.lawson@reqres.in',
           'first_name': 'Michael',
           'id': 7,
           'last_name': 'Lawson'},
          {'avatar': 'https://reqres.in/img/faces/8-image.jpg',
           'email': 'lindsay.ferguson@reqres.in',
           'first_name': 'Lindsay',
           'id': 8,
           'last_name': 'Ferguson'},
          {'avatar': 'https://reqres.in/img/faces/9-image.jpg',
           'email': 'tobias.funke@reqres.in',
           'first_name': 'Tobias',
           'id': 9,
           'last_name': 'Funke'},
          {'avatar': 'https://reqres.in/img/faces/10-image.jpg',
           'email': 'byron.fields@reqres.in',
           'first_name': 'Byron',
           'id': 10,
           'last_name': 'Fields'},
          {'avatar': 'https://reqres.in/img/faces/11-image.jpg',
           'email': 'george.edwards@reqres.in',
           'first_name': 'George',
           'id': 11,
           'last_name': 'Edwards'},
          {'avatar': 'https://reqres.in/img/faces/12-image.jpg',
           'email': 'rachel.howell@reqres.in',
           'first_name': 'Rachel',
           'id': 12,
           'last_name': 'Howell'}],
 'page': 2,
 'per_page': 6,
 'support': {'text': 'To keep ReqRes free, contributions towards server costs are appreciated!',
             'url': 'https://reqres.in/#support-heading'},
 'total': 12,
 'total_pages': 2} | '$.data[0].last_name' ]</msg>
<msg timestamp="20231024 16:03:43.195" level="TRACE">Return: ['Lawson']</msg>
<msg timestamp="20231024 16:03:43.195" level="INFO">${First_Lastname_value} = ['Lawson']</msg>
<status status="PASS" starttime="20231024 16:03:43.177" endtime="20231024 16:03:43.195"/>
</kw>
<kw name="Should Be Equal As Strings" library="BuiltIn">
<arg>${First_Lastname_value[0]}</arg>
<arg>Lawson</arg>
<doc>Fails if objects are unequal after converting them to strings.</doc>
<msg timestamp="20231024 16:03:43.196" level="TRACE">Arguments: [ 'Lawson' | 'Lawson' ]</msg>
<msg timestamp="20231024 16:03:43.196" level="DEBUG">Argument types are:
&lt;class 'str'&gt;
&lt;class 'str'&gt;</msg>
<msg timestamp="20231024 16:03:43.197" level="TRACE">Return: None</msg>
<status status="PASS" starttime="20231024 16:03:43.196" endtime="20231024 16:03:43.197"/>
</kw>
<kw name="Get From Dictionary" library="Collections">
<var>${ContentTypeValue}</var>
<arg>${response.headers}</arg>
<arg>Content-Type</arg>
<doc>Returns a value from the given ``dictionary`` based on the given ``key``.</doc>
<msg timestamp="20231024 16:03:43.197" level="TRACE">Arguments: [ {'Date': 'Tue, 24 Oct 2023 14:03:43 GMT', 'Content-Type': 'application/json; charset=utf-8', 'Transfer-Encoding': 'chunked', 'Connection': 'keep-alive', 'X-Powered-By': 'Express', 'Access-Control-Allow-Origin': '*', 'Etag': 'W/"406-ut0vzoCuidvyMf8arZpMpJ6ZRDw"', 'Via': '1.1 vegur', 'Cache-Control': 'max-age=14400', 'CF-Cache-Status': 'HIT', 'Age': '368', 'Report-To': '{"endpoints":[{"url":"https:\\/\\/a.nel.cloudflare.com\\/report\\/v3?s=2V%2BVTJe5ZjQ5ttkd%2FWYepmvKZv1vdbkQYPDSLOMXzuNHC9ROK4ZaA90vUs2tJ5yvbIwC3kz5l0vYtSYBhz4lTDH5MWTFlLTxVK%2B3g%2F3skxjB4mzn9KCWQQS5MQ%3D%3D"}],"group":"cf-nel","max_age":604800}', 'NEL': '{"success_fraction":0,"report_to":"cf-nel","max_age":604800}', 'Vary': 'Accept-Encoding', 'Server': 'cloudflare', 'CF-RAY': '81b2c3ca69b1d536-CDG', 'Content-Encoding': 'gzip'} | 'Content-Type' ]</msg>
<msg timestamp="20231024 16:03:43.197" level="TRACE">Return: 'application/json; charset=utf-8'</msg>
<msg timestamp="20231024 16:03:43.197" level="INFO">${ContentTypeValue} = application/json; charset=utf-8</msg>
<status status="PASS" starttime="20231024 16:03:43.197" endtime="20231024 16:03:43.197"/>
</kw>
<kw name="Should Be Equal" library="BuiltIn">
<arg>${ContentTypeValue}</arg>
<arg>application/json; charset=utf-8</arg>
<doc>Fails if the given objects are unequal.</doc>
<msg timestamp="20231024 16:03:43.198" level="TRACE">Arguments: [ 'application/json; charset=utf-8' | 'application/json; charset=utf-8' ]</msg>
<msg timestamp="20231024 16:03:43.198" level="DEBUG">Argument types are:
&lt;class 'str'&gt;
&lt;class 'str'&gt;</msg>
<msg timestamp="20231024 16:03:43.198" level="TRACE">Return: None</msg>
<status status="PASS" starttime="20231024 16:03:43.198" endtime="20231024 16:03:43.198"/>
</kw>
<status status="PASS" starttime="20231024 16:03:43.031" endtime="20231024 16:03:43.198"/>
</test>
<status status="PASS" starttime="20231024 16:03:42.864" endtime="20231024 16:03:43.199"/>
</suite>
<statistics>
<total>
<stat pass="1" fail="0" skip="0">All Tests</stat>
</total>
<tag>
</tag>
<suite>
<stat pass="1" fail="0" skip="0" id="s1" name="ApiTesting">ApiTesting</stat>
</suite>
</statistics>
<errors>
</errors>
</robot>
